{
  "id": "service",
  "password": {
    "encrypted_data": "Ox6mN16SZ2Ng8U5LVgy3h54W2XwGZjw=\n",
    "iv": "opdwd5Vuk2912oIg\n",
    "auth_tag": "FPvEsqCUo1EBk5UAZO10UA==\n",
    "version": 3,
    "cipher": "aes-256-gcm"
  }
}
