{
  "name": "prod",
  "description": "Production environment",
  "cookbook_versions": {
  },
  "json_class": "Chef::Environment",
  "chef_type": "environment",
  "default_attributes": {
    "local": {
      "region": "prod"
    }
  },
  "override_attributes": {
  }
}
